^C:\UNI\GP\COS30031-101111372\09 - SPIKE - GAME STATE MANAGEMENT\ZORKISH\ZORKISH\MAIN.CPP
/c /ZI /nologo /W3 /WX- /diagnostics:classic /Od /Oy- /D WIN32 /D _DEBUG /D _CONSOLE /D _UNICODE /D UNICODE /Gm /EHsc /RTC1 /MDd /GS /fp:precise /Zc:wchar_t /Zc:forScope /Zc:inline /Fo"DEBUG\\" /Fd"DEBUG\VC141.PDB" /Gd /TP /analyze- C:\UNI\GP\COS30031-101111372\09 - SPIKE - GAME STATE MANAGEMENT\ZORKISH\ZORKISH\MAIN.CPP
^C:\UNI\GP\COS30031-101111372\10 - SPIKE - GAME DATA STRUCTURES\ZORKISH\ZORKISH\MAIN.CPP
/c /ZI /nologo /W3 /WX- /diagnostics:classic /Od /Oy- /D WIN32 /D _DEBUG /D _CONSOLE /D _UNICODE /D UNICODE /Gm /EHsc /RTC1 /MDd /GS /fp:precise /Zc:wchar_t /Zc:forScope /Zc:inline /Fo"DEBUG\\" /Fd"DEBUG\VC141.PDB" /Gd /TP /analyze- C:\UNI\GP\COS30031-101111372\10 - SPIKE - GAME DATA STRUCTURES\ZORKISH\ZORKISH\MAIN.CPP
