^C:\UNI\GP\COS30031-101111372\09 - SPIKE - GAME STATE MANAGEMENT\ZORKISH\ZORKISH\DEBUG\MAIN.OBJ
C:\UNI\GP\COS30031-101111372\09 - SPIKE - GAME STATE MANAGEMENT\ZORKISH\DEBUG\ZORKISH.ILK
C:\UNI\GP\COS30031-101111372\09 - SPIKE - GAME STATE MANAGEMENT\ZORKISH\DEBUG\ZORKISH.EXE
C:\UNI\GP\COS30031-101111372\09 - SPIKE - GAME STATE MANAGEMENT\ZORKISH\DEBUG\ZORKISH.PDB
^C:\UNI\GP\COS30031-101111372\10 - SPIKE - GAME DATA STRUCTURES\ZORKISH\ZORKISH\DEBUG\MAIN.OBJ
C:\UNI\GP\COS30031-101111372\10 - SPIKE - GAME DATA STRUCTURES\ZORKISH\DEBUG\ZORKISH.ILK
C:\UNI\GP\COS30031-101111372\10 - SPIKE - GAME DATA STRUCTURES\ZORKISH\DEBUG\ZORKISH.EXE
C:\UNI\GP\COS30031-101111372\10 - SPIKE - GAME DATA STRUCTURES\ZORKISH\DEBUG\ZORKISH.PDB
